Vivado_testing/Staging_Unit/Staging_Unit.sim/sim_1/behav/xsim/simulate.log
Time resolution is 1 ps
ld_4x4=0 ld_4x8=0 shift_up=0 shift_left=0 squash=0 capture=0
xx xx xx xx | xx xx xx xx | xx xx xx xx | xx xx xx xx
xx xx xx xx | xx xx xx xx | xx xx xx xx | xx xx xx xx
xx xx xx xx | xx xx xx xx | xx xx xx xx | xx xx xx xx
xx xx xx xx | xx xx xx xx | xx xx xx xx | xx xx xx xx
00 00 00 00 00 00 00 00
00 00 00 00 00 00 00 00
00 00 00 00 00 00 00 00
00 00 00 00 00 00 00 00
----------------------------------------
ld_4x4=0 ld_4x8=0 shift_up=0 shift_left=0 squash=0 capture=0
xx xx xx xx | xx xx xx xx | xx xx xx xx | xx xx xx xx
xx xx xx xx | xx xx xx xx | xx xx xx xx | xx xx xx xx
xx xx xx xx | xx xx xx xx | xx xx xx xx | xx xx xx xx
xx xx xx xx | xx xx xx xx | xx xx xx xx | xx xx xx xx
00 00 00 00 00 00 00 00
00 00 00 00 00 00 00 00
00 00 00 00 00 00 00 00
00 00 00 00 00 00 00 00
----------------------------------------
ld_4x4=0 ld_4x8=0 shift_up=0 shift_left=0 squash=0 capture=0
xx xx xx xx | xx xx xx xx | xx xx xx xx | xx xx xx xx
xx xx xx xx | xx xx xx xx | xx xx xx xx | xx xx xx xx
xx xx xx xx | xx xx xx xx | xx xx xx xx | xx xx xx xx
xx xx xx xx | xx xx xx xx | xx xx xx xx | xx xx xx xx
00 00 00 00 00 00 00 00
00 00 00 00 00 00 00 00
00 00 00 00 00 00 00 00
00 00 00 00 00 00 00 00
----------------------------------------
ld_4x4=0 ld_4x8=0 shift_up=0 shift_left=0 squash=0 capture=0
xx xx xx xx | xx xx xx xx | xx xx xx xx | xx xx xx xx
xx xx xx xx | xx xx xx xx | xx xx xx xx | xx xx xx xx
xx xx xx xx | xx xx xx xx | xx xx xx xx | xx xx xx xx
xx xx xx xx | xx xx xx xx | xx xx xx xx | xx xx xx xx
00 00 00 00 00 00 00 00
00 00 00 00 00 00 00 00
00 00 00 00 00 00 00 00
00 00 00 00 00 00 00 00
----------------------------------------
ld_4x4=0 ld_4x8=0 shift_up=0 shift_left=0 squash=0 capture=0
xx xx xx xx | xx xx xx xx | xx xx xx xx | xx xx xx xx
xx xx xx xx | xx xx xx xx | xx xx xx xx | xx xx xx xx
xx xx xx xx | xx xx xx xx | xx xx xx xx | xx xx xx xx
xx xx xx xx | xx xx xx xx | xx xx xx xx | xx xx xx xx
00 00 00 00 00 00 00 00
00 00 00 00 00 00 00 00
00 00 00 00 00 00 00 00
00 00 00 00 00 00 00 00
----------------------------------------
ld_4x4=1 ld_4x8=0 shift_up=0 shift_left=0 squash=0 capture=0
xx xx xx xx | xx xx xx xx | xx xx xx xx | xx xx xx xx
xx xx xx xx | xx xx xx xx | xx xx xx xx | xx xx xx xx
xx xx xx xx | xx xx xx xx | xx xx xx xx | xx xx xx xx
xx xx xx xx | xx xx xx xx | xx xx xx xx | xx xx xx xx
00 00 00 00 00 00 00 00
00 00 00 00 00 00 00 00
00 00 00 00 00 00 00 00
00 00 00 00 00 00 00 00
----------------------------------------
ld_4x4=1 ld_4x8=0 shift_up=1 shift_left=0 squash=0 capture=0
xx xx xx xx | xx xx xx xx | xx xx xx xx | xx xx xx xx
xx xx xx xx | xx xx xx xx | xx xx xx xx | xx xx xx xx
xx xx xx xx | xx xx xx xx | xx xx xx xx | xx xx xx xx
xx xx xx xx | xx xx xx xx | xx xx xx xx | xx xx xx xx
00 00 00 00 00 00 00 00
00 00 00 00 00 00 00 00
00 00 00 00 xx xx xx xx
00 00 00 00 00 00 00 01
----------------------------------------
ld_4x4=1 ld_4x8=0 shift_up=1 shift_left=0 squash=0 capture=0
xx xx xx xx | xx xx xx xx | xx xx xx xx | xx xx xx xx
xx xx xx xx | xx xx xx xx | xx xx xx xx | xx xx xx xx
xx xx xx xx | xx xx xx xx | xx xx xx xx | xx xx xx xx
xx xx xx xx | xx xx xx xx | xx xx xx xx | xx xx xx xx
00 00 00 00 00 00 00 00
00 00 00 00 xx xx xx xx
00 00 00 00 xx xx xx xx
00 00 00 00 00 00 01 02
----------------------------------------
ld_4x4=0 ld_4x8=0 shift_up=0 shift_left=1 squash=0 capture=0
xx xx xx xx | xx xx xx xx | xx xx xx xx | xx xx xx xx
xx xx xx xx | xx xx xx xx | xx xx xx xx | xx xx xx xx
xx xx xx xx | xx xx xx xx | xx xx xx xx | xx xx xx xx
xx xx xx xx | xx xx xx xx | xx xx xx xx | xx xx xx xx
00 00 00 00 xx xx xx xx
00 00 00 00 xx xx xx xx
00 00 00 00 xx xx xx xx
00 00 00 00 00 01 02 03
----------------------------------------
ld_4x4=1 ld_4x8=0 shift_up=0 shift_left=0 squash=0 capture=0
00 01 02 03 | xx xx xx xx | xx xx xx xx | xx xx xx xx
xx xx xx xx | xx xx xx xx | xx xx xx xx | xx xx xx xx
xx xx xx xx | xx xx xx xx | xx xx xx xx | xx xx xx xx
xx xx xx xx | xx xx xx xx | xx xx xx xx | xx xx xx xx
xx xx xx xx xx xx xx xx
xx xx xx xx xx xx xx xx
xx xx xx xx xx xx xx xx
00 00 00 00 01 02 03 04
----------------------------------------
ld_4x4=1 ld_4x8=0 shift_up=1 shift_left=0 squash=0 capture=0
00 01 02 03 | xx xx xx xx | xx xx xx xx | xx xx xx xx
xx xx xx xx | xx xx xx xx | xx xx xx xx | xx xx xx xx
xx xx xx xx | xx xx xx xx | xx xx xx xx | xx xx xx xx
xx xx xx xx | xx xx xx xx | xx xx xx xx | xx xx xx xx
xx xx xx xx xx xx xx xx
xx xx xx xx xx xx xx xx
xx xx xx xx xx xx xx xx
00 00 00 01 02 03 04 05
----------------------------------------
ld_4x4=1 ld_4x8=0 shift_up=1 shift_left=0 squash=0 capture=0
00 01 02 03 | xx xx xx xx | xx xx xx xx | xx xx xx xx
xx xx xx xx | xx xx xx xx | xx xx xx xx | xx xx xx xx
xx xx xx xx | xx xx xx xx | xx xx xx xx | xx xx xx xx
xx xx xx xx | xx xx xx xx | xx xx xx xx | xx xx xx xx
xx xx xx xx xx xx xx xx
xx xx xx xx xx xx xx xx
xx xx xx xx xx xx xx xx
00 00 01 02 03 04 05 06
----------------------------------------
ld_4x4=0 ld_4x8=1 shift_up=0 shift_left=1 squash=0 capture=0
00 01 02 03 | xx xx xx xx | xx xx xx xx | xx xx xx xx
xx xx xx xx | xx xx xx xx | xx xx xx xx | xx xx xx xx
xx xx xx xx | xx xx xx xx | xx xx xx xx | xx xx xx xx
xx xx xx xx | xx xx xx xx | xx xx xx xx | xx xx xx xx
xx xx xx xx xx xx xx xx
xx xx xx xx xx xx xx xx
xx xx xx xx xx xx xx xx
00 01 02 03 04 05 06 07
----------------------------------------
ld_4x4=1 ld_4x8=0 shift_up=0 shift_left=0 squash=0 capture=0
00 01 02 03 | 04 05 06 07 | xx xx xx xx | xx xx xx xx
xx xx xx xx | xx xx xx xx | xx xx xx xx | xx xx xx xx
xx xx xx xx | xx xx xx xx | xx xx xx xx | xx xx xx xx
xx xx xx xx | xx xx xx xx | xx xx xx xx | xx xx xx xx
xx xx xx xx xx xx xx xx
xx xx xx xx xx xx xx xx
xx xx xx xx xx xx xx xx
01 02 03 04 05 06 07 08
----------------------------------------
ld_4x4=1 ld_4x8=0 shift_up=1 shift_left=0 squash=0 capture=0
00 01 02 03 | 04 05 06 07 | xx xx xx xx | xx xx xx xx
xx xx xx xx | xx xx xx xx | xx xx xx xx | xx xx xx xx
xx xx xx xx | xx xx xx xx | xx xx xx xx | xx xx xx xx
xx xx xx xx | xx xx xx xx | xx xx xx xx | xx xx xx xx
xx xx xx xx xx xx xx xx
xx xx xx xx xx xx xx xx
xx xx xx xx xx xx xx xx
02 03 04 05 06 07 08 09
----------------------------------------
ld_4x4=1 ld_4x8=0 shift_up=1 shift_left=0 squash=0 capture=0
00 01 02 03 | 04 05 06 07 | xx xx xx xx | xx xx xx xx
xx xx xx xx | xx xx xx xx | xx xx xx xx | xx xx xx xx
xx xx xx xx | xx xx xx xx | xx xx xx xx | xx xx xx xx
xx xx xx xx | xx xx xx xx | xx xx xx xx | xx xx xx xx
xx xx xx xx xx xx xx xx
xx xx xx xx xx xx xx xx
xx xx xx xx xx xx xx xx
03 04 05 06 07 08 09 0a
----------------------------------------
ld_4x4=0 ld_4x8=0 shift_up=0 shift_left=1 squash=0 capture=0
00 01 02 03 | 04 05 06 07 | xx xx xx xx | xx xx xx xx
xx xx xx xx | xx xx xx xx | xx xx xx xx | xx xx xx xx
xx xx xx xx | xx xx xx xx | xx xx xx xx | xx xx xx xx
xx xx xx xx | xx xx xx xx | xx xx xx xx | xx xx xx xx
xx xx xx xx xx xx xx xx
xx xx xx xx xx xx xx xx
xx xx xx xx xx xx xx xx
04 05 06 07 08 09 0a 0b
----------------------------------------
ld_4x4=1 ld_4x8=0 shift_up=0 shift_left=0 squash=0 capture=0
00 01 02 03 | 04 05 06 07 | 08 09 0a 0b | xx xx xx xx
xx xx xx xx | xx xx xx xx | xx xx xx xx | xx xx xx xx
xx xx xx xx | xx xx xx xx | xx xx xx xx | xx xx xx xx
xx xx xx xx | xx xx xx xx | xx xx xx xx | xx xx xx xx
xx xx xx xx xx xx xx xx
xx xx xx xx xx xx xx xx
xx xx xx xx xx xx xx xx
05 06 07 08 09 0a 0b 0c
----------------------------------------
ld_4x4=1 ld_4x8=0 shift_up=1 shift_left=0 squash=0 capture=0
00 01 02 03 | 04 05 06 07 | 08 09 0a 0b | xx xx xx xx
xx xx xx xx | xx xx xx xx | xx xx xx xx | xx xx xx xx
xx xx xx xx | xx xx xx xx | xx xx xx xx | xx xx xx xx
xx xx xx xx | xx xx xx xx | xx xx xx xx | xx xx xx xx
xx xx xx xx xx xx xx xx
xx xx xx xx xx xx xx xx
xx xx xx xx xx xx xx xx
06 07 08 09 0a 0b 0c 0d
----------------------------------------
ld_4x4=1 ld_4x8=0 shift_up=1 shift_left=0 squash=0 capture=0
00 01 02 03 | 04 05 06 07 | 08 09 0a 0b | xx xx xx xx
xx xx xx xx | xx xx xx xx | xx xx xx xx | xx xx xx xx
xx xx xx xx | xx xx xx xx | xx xx xx xx | xx xx xx xx
xx xx xx xx | xx xx xx xx | xx xx xx xx | xx xx xx xx
xx xx xx xx xx xx xx xx
xx xx xx xx xx xx xx xx
xx xx xx xx xx xx xx xx
07 08 09 0a 0b 0c 0d 0e
----------------------------------------
ld_4x4=0 ld_4x8=1 shift_up=0 shift_left=1 squash=1 capture=0
00 01 02 03 | 04 05 06 07 | 08 09 0a 0b | xx xx xx xx
xx xx xx xx | xx xx xx xx | xx xx xx xx | xx xx xx xx
xx xx xx xx | xx xx xx xx | xx xx xx xx | xx xx xx xx
xx xx xx xx | xx xx xx xx | xx xx xx xx | xx xx xx xx
xx xx xx xx xx xx xx xx
xx xx xx xx xx xx xx xx
xx xx xx xx xx xx xx xx
08 09 0a 0b 0c 0d 0e 0f
----------------------------------------
ld_4x4=1 ld_4x8=0 shift_up=0 shift_left=0 squash=0 capture=0
00 01 02 03 | 04 05 06 07 | 08 09 0a 0b | 0c 0d 0e 0f
xx xx xx xx | xx xx xx xx | xx xx xx xx | xx xx xx xx
xx xx xx xx | xx xx xx xx | xx xx xx xx | xx xx xx xx
xx xx xx xx | xx xx xx xx | xx xx xx xx | xx xx xx xx
xx xx xx xx xx xx xx xx
xx xx xx xx xx xx xx xx
xx xx xx xx xx xx xx xx
09 0a 0b 0c 0d 0e 0f 10
----------------------------------------
ld_4x4=1 ld_4x8=0 shift_up=1 shift_left=0 squash=0 capture=0
00 01 02 03 | 04 05 06 07 | 08 09 0a 0b | 0c 0d 0e 0f
xx xx xx xx | xx xx xx xx | xx xx xx xx | xx xx xx xx
xx xx xx xx | xx xx xx xx | xx xx xx xx | xx xx xx xx
xx xx xx xx | xx xx xx xx | xx xx xx xx | xx xx xx xx
xx xx xx xx xx xx xx xx
xx xx xx xx xx xx xx xx
xx xx xx xx xx xx xx xx
0a 0b 0c 0d 0e 0f 10 11
----------------------------------------
ld_4x4=1 ld_4x8=0 shift_up=1 shift_left=0 squash=0 capture=0
00 01 02 03 | 04 05 06 07 | 08 09 0a 0b | 0c 0d 0e 0f
xx xx xx xx | xx xx xx xx | xx xx xx xx | xx xx xx xx
xx xx xx xx | xx xx xx xx | xx xx xx xx | xx xx xx xx
xx xx xx xx | xx xx xx xx | xx xx xx xx | xx xx xx xx
xx xx xx xx xx xx xx xx
xx xx xx xx xx xx xx xx
xx xx xx xx xx xx xx xx
0b 0c 0d 0e 0f 10 11 12
----------------------------------------
ld_4x4=0 ld_4x8=0 shift_up=0 shift_left=1 squash=0 capture=0
00 01 02 03 | 04 05 06 07 | 08 09 0a 0b | 0c 0d 0e 0f
xx xx xx xx | xx xx xx xx | xx xx xx xx | xx xx xx xx
xx xx xx xx | xx xx xx xx | xx xx xx xx | xx xx xx xx
xx xx xx xx | xx xx xx xx | xx xx xx xx | xx xx xx xx
xx xx xx xx xx xx xx xx
xx xx xx xx xx xx xx xx
xx xx xx xx 00 01 02 03
0c 0d 0e 0f 10 11 12 13
----------------------------------------
ld_4x4=1 ld_4x8=0 shift_up=0 shift_left=0 squash=0 capture=0
00 01 02 03 | 04 05 06 07 | 08 09 0a 0b | 0c 0d 0e 0f
10 11 12 13 | xx xx xx xx | xx xx xx xx | xx xx xx xx
xx xx xx xx | xx xx xx xx | xx xx xx xx | xx xx xx xx
xx xx xx xx | xx xx xx xx | xx xx xx xx | xx xx xx xx
xx xx xx xx xx xx xx xx
xx xx xx xx xx xx xx xx
00 01 02 03 00 01 02 03
0d 0e 0f 10 11 12 13 14
----------------------------------------
ld_4x4=1 ld_4x8=0 shift_up=1 shift_left=0 squash=0 capture=0
00 01 02 03 | 04 05 06 07 | 08 09 0a 0b | 0c 0d 0e 0f
10 11 12 13 | xx xx xx xx | xx xx xx xx | xx xx xx xx
xx xx xx xx | xx xx xx xx | xx xx xx xx | xx xx xx xx
xx xx xx xx | xx xx xx xx | xx xx xx xx | xx xx xx xx
xx xx xx xx xx xx xx xx
xx xx xx xx xx xx xx xx
00 01 02 03 xx xx xx xx
0e 0f 10 11 12 13 14 15
----------------------------------------
ld_4x4=1 ld_4x8=0 shift_up=1 shift_left=0 squash=0 capture=0
00 01 02 03 | 04 05 06 07 | 08 09 0a 0b | 0c 0d 0e 0f
10 11 12 13 | xx xx xx xx | xx xx xx xx | xx xx xx xx
xx xx xx xx | xx xx xx xx | xx xx xx xx | xx xx xx xx
xx xx xx xx | xx xx xx xx | xx xx xx xx | xx xx xx xx
xx xx xx xx xx xx xx xx
xx xx xx xx xx xx xx xx
00 01 02 03 xx xx xx xx
0f 10 11 12 13 14 15 16
----------------------------------------
ld_4x4=0 ld_4x8=1 shift_up=0 shift_left=1 squash=0 capture=0
00 01 02 03 | 04 05 06 07 | 08 09 0a 0b | 0c 0d 0e 0f
10 11 12 13 | xx xx xx xx | xx xx xx xx | xx xx xx xx
xx xx xx xx | xx xx xx xx | xx xx xx xx | xx xx xx xx
xx xx xx xx | xx xx xx xx | xx xx xx xx | xx xx xx xx
xx xx xx xx xx xx xx xx
xx xx xx xx xx xx xx xx
00 01 02 03 04 05 06 07
10 11 12 13 14 15 16 17
----------------------------------------
ld_4x4=1 ld_4x8=0 shift_up=0 shift_left=0 squash=0 capture=0
00 01 02 03 | 04 05 06 07 | 08 09 0a 0b | 0c 0d 0e 0f
10 11 12 13 | 14 15 16 17 | xx xx xx xx | xx xx xx xx
xx xx xx xx | xx xx xx xx | xx xx xx xx | xx xx xx xx
xx xx xx xx | xx xx xx xx | xx xx xx xx | xx xx xx xx
xx xx xx xx xx xx xx xx
xx xx xx xx xx xx xx xx
04 05 06 07 04 05 06 07
11 12 13 14 15 16 17 18
----------------------------------------
ld_4x4=1 ld_4x8=0 shift_up=1 shift_left=0 squash=0 capture=0
00 01 02 03 | 04 05 06 07 | 08 09 0a 0b | 0c 0d 0e 0f
10 11 12 13 | 14 15 16 17 | xx xx xx xx | xx xx xx xx
xx xx xx xx | xx xx xx xx | xx xx xx xx | xx xx xx xx
xx xx xx xx | xx xx xx xx | xx xx xx xx | xx xx xx xx
xx xx xx xx xx xx xx xx
xx xx xx xx xx xx xx xx
04 05 06 07 xx xx xx xx
12 13 14 15 16 17 18 19
----------------------------------------
ld_4x4=1 ld_4x8=0 shift_up=1 shift_left=0 squash=0 capture=0
00 01 02 03 | 04 05 06 07 | 08 09 0a 0b | 0c 0d 0e 0f
10 11 12 13 | 14 15 16 17 | xx xx xx xx | xx xx xx xx
xx xx xx xx | xx xx xx xx | xx xx xx xx | xx xx xx xx
xx xx xx xx | xx xx xx xx | xx xx xx xx | xx xx xx xx
xx xx xx xx xx xx xx xx
xx xx xx xx xx xx xx xx
04 05 06 07 xx xx xx xx
13 14 15 16 17 18 19 1a
----------------------------------------
ld_4x4=0 ld_4x8=0 shift_up=0 shift_left=1 squash=0 capture=0
00 01 02 03 | 04 05 06 07 | 08 09 0a 0b | 0c 0d 0e 0f
10 11 12 13 | 14 15 16 17 | xx xx xx xx | xx xx xx xx
xx xx xx xx | xx xx xx xx | xx xx xx xx | xx xx xx xx
xx xx xx xx | xx xx xx xx | xx xx xx xx | xx xx xx xx
xx xx xx xx xx xx xx xx
xx xx xx xx xx xx xx xx
04 05 06 07 08 09 0a 0b
14 15 16 17 18 19 1a 1b
----------------------------------------
ld_4x4=1 ld_4x8=0 shift_up=0 shift_left=0 squash=0 capture=0
00 01 02 03 | 04 05 06 07 | 08 09 0a 0b | 0c 0d 0e 0f
10 11 12 13 | 14 15 16 17 | 18 19 1a 1b | xx xx xx xx
xx xx xx xx | xx xx xx xx | xx xx xx xx | xx xx xx xx
xx xx xx xx | xx xx xx xx | xx xx xx xx | xx xx xx xx
xx xx xx xx xx xx xx xx
xx xx xx xx xx xx xx xx
08 09 0a 0b 08 09 0a 0b
15 16 17 18 19 1a 1b 1c
----------------------------------------
ld_4x4=1 ld_4x8=0 shift_up=1 shift_left=0 squash=0 capture=0
00 01 02 03 | 04 05 06 07 | 08 09 0a 0b | 0c 0d 0e 0f
10 11 12 13 | 14 15 16 17 | 18 19 1a 1b | xx xx xx xx
xx xx xx xx | xx xx xx xx | xx xx xx xx | xx xx xx xx
xx xx xx xx | xx xx xx xx | xx xx xx xx | xx xx xx xx
xx xx xx xx xx xx xx xx
xx xx xx xx xx xx xx xx
08 09 0a 0b xx xx xx xx
16 17 18 19 1a 1b 1c 1d
----------------------------------------
ld_4x4=1 ld_4x8=0 shift_up=1 shift_left=0 squash=0 capture=0
00 01 02 03 | 04 05 06 07 | 08 09 0a 0b | 0c 0d 0e 0f
10 11 12 13 | 14 15 16 17 | 18 19 1a 1b | xx xx xx xx
xx xx xx xx | xx xx xx xx | xx xx xx xx | xx xx xx xx
xx xx xx xx | xx xx xx xx | xx xx xx xx | xx xx xx xx
xx xx xx xx xx xx xx xx
xx xx xx xx xx xx xx xx
08 09 0a 0b xx xx xx xx
17 18 19 1a 1b 1c 1d 1e
----------------------------------------
ld_4x4=0 ld_4x8=1 shift_up=0 shift_left=1 squash=1 capture=0
00 01 02 03 | 04 05 06 07 | 08 09 0a 0b | 0c 0d 0e 0f
10 11 12 13 | 14 15 16 17 | 18 19 1a 1b | xx xx xx xx
xx xx xx xx | xx xx xx xx | xx xx xx xx | xx xx xx xx
xx xx xx xx | xx xx xx xx | xx xx xx xx | xx xx xx xx
xx xx xx xx xx xx xx xx
xx xx xx xx xx xx xx xx
08 09 0a 0b 0c 0d 0e 0f
18 19 1a 1b 1c 1d 1e 1f
----------------------------------------
ld_4x4=1 ld_4x8=0 shift_up=0 shift_left=0 squash=0 capture=0
00 01 02 03 | 04 05 06 07 | 08 09 0a 0b | 0c 0d 0e 0f
10 11 12 13 | 14 15 16 17 | 18 19 1a 1b | 1c 1d 1e 1f
xx xx xx xx | xx xx xx xx | xx xx xx xx | xx xx xx xx
xx xx xx xx | xx xx xx xx | xx xx xx xx | xx xx xx xx
xx xx xx xx xx xx xx xx
xx xx xx xx xx xx xx xx
0c 0d 0e 0f 0c 0d 0e 0f
19 1a 1b 1c 1d 1e 1f 20
----------------------------------------
ld_4x4=1 ld_4x8=0 shift_up=1 shift_left=0 squash=0 capture=0
00 01 02 03 | 04 05 06 07 | 08 09 0a 0b | 0c 0d 0e 0f
10 11 12 13 | 14 15 16 17 | 18 19 1a 1b | 1c 1d 1e 1f
xx xx xx xx | xx xx xx xx | xx xx xx xx | xx xx xx xx
xx xx xx xx | xx xx xx xx | xx xx xx xx | xx xx xx xx
xx xx xx xx xx xx xx xx
xx xx xx xx xx xx xx xx
0c 0d 0e 0f xx xx xx xx
1a 1b 1c 1d 1e 1f 20 21
----------------------------------------
ld_4x4=1 ld_4x8=0 shift_up=1 shift_left=0 squash=0 capture=0
00 01 02 03 | 04 05 06 07 | 08 09 0a 0b | 0c 0d 0e 0f
10 11 12 13 | 14 15 16 17 | 18 19 1a 1b | 1c 1d 1e 1f
xx xx xx xx | xx xx xx xx | xx xx xx xx | xx xx xx xx
xx xx xx xx | xx xx xx xx | xx xx xx xx | xx xx xx xx
xx xx xx xx xx xx xx xx
xx xx xx xx xx xx xx xx
0c 0d 0e 0f 00 01 02 03
1b 1c 1d 1e 1f 20 21 22
----------------------------------------
ld_4x4=0 ld_4x8=0 shift_up=0 shift_left=1 squash=0 capture=0
00 01 02 03 | 04 05 06 07 | 08 09 0a 0b | 0c 0d 0e 0f
10 11 12 13 | 14 15 16 17 | 18 19 1a 1b | 1c 1d 1e 1f
xx xx xx xx | xx xx xx xx | xx xx xx xx | xx xx xx xx
xx xx xx xx | xx xx xx xx | xx xx xx xx | xx xx xx xx
xx xx xx xx xx xx xx xx
xx xx xx xx 00 01 02 03
0c 0d 0e 0f 10 11 12 13
1c 1d 1e 1f 20 21 22 23
----------------------------------------
ld_4x4=1 ld_4x8=0 shift_up=0 shift_left=0 squash=0 capture=0
00 01 02 03 | 04 05 06 07 | 08 09 0a 0b | 0c 0d 0e 0f
10 11 12 13 | 14 15 16 17 | 18 19 1a 1b | 1c 1d 1e 1f
20 21 22 23 | xx xx xx xx | xx xx xx xx | xx xx xx xx
xx xx xx xx | xx xx xx xx | xx xx xx xx | xx xx xx xx
xx xx xx xx xx xx xx xx
00 01 02 03 00 01 02 03
10 11 12 13 10 11 12 13
1d 1e 1f 20 21 22 23 24
----------------------------------------
ld_4x4=1 ld_4x8=0 shift_up=1 shift_left=0 squash=0 capture=0
00 01 02 03 | 04 05 06 07 | 08 09 0a 0b | 0c 0d 0e 0f
10 11 12 13 | 14 15 16 17 | 18 19 1a 1b | 1c 1d 1e 1f
20 21 22 23 | xx xx xx xx | xx xx xx xx | xx xx xx xx
xx xx xx xx | xx xx xx xx | xx xx xx xx | xx xx xx xx
xx xx xx xx xx xx xx xx
00 01 02 03 00 01 02 03
10 11 12 13 xx xx xx xx
1e 1f 20 21 22 23 24 25
----------------------------------------
ld_4x4=1 ld_4x8=0 shift_up=1 shift_left=0 squash=0 capture=0
00 01 02 03 | 04 05 06 07 | 08 09 0a 0b | 0c 0d 0e 0f
10 11 12 13 | 14 15 16 17 | 18 19 1a 1b | 1c 1d 1e 1f
20 21 22 23 | xx xx xx xx | xx xx xx xx | xx xx xx xx
xx xx xx xx | xx xx xx xx | xx xx xx xx | xx xx xx xx
xx xx xx xx 00 01 02 03
00 01 02 03 xx xx xx xx
10 11 12 13 04 05 06 07
1f 20 21 22 23 24 25 26
----------------------------------------
ld_4x4=0 ld_4x8=1 shift_up=0 shift_left=1 squash=0 capture=0
00 01 02 03 | 04 05 06 07 | 08 09 0a 0b | 0c 0d 0e 0f
10 11 12 13 | 14 15 16 17 | 18 19 1a 1b | 1c 1d 1e 1f
20 21 22 23 | xx xx xx xx | xx xx xx xx | xx xx xx xx
xx xx xx xx | xx xx xx xx | xx xx xx xx | xx xx xx xx
xx xx xx xx xx xx xx xx
00 01 02 03 04 05 06 07
10 11 12 13 14 15 16 17
20 21 22 23 24 25 26 27
----------------------------------------
ld_4x4=1 ld_4x8=0 shift_up=0 shift_left=0 squash=0 capture=0
00 01 02 03 | 04 05 06 07 | 08 09 0a 0b | 0c 0d 0e 0f
10 11 12 13 | 14 15 16 17 | 18 19 1a 1b | 1c 1d 1e 1f
20 21 22 23 | 24 25 26 27 | xx xx xx xx | xx xx xx xx
xx xx xx xx | xx xx xx xx | xx xx xx xx | xx xx xx xx
xx xx xx xx xx xx xx xx
04 05 06 07 04 05 06 07
14 15 16 17 14 15 16 17
21 22 23 24 25 26 27 28
----------------------------------------
ld_4x4=1 ld_4x8=0 shift_up=1 shift_left=0 squash=0 capture=0
00 01 02 03 | 04 05 06 07 | 08 09 0a 0b | 0c 0d 0e 0f
10 11 12 13 | 14 15 16 17 | 18 19 1a 1b | 1c 1d 1e 1f
20 21 22 23 | 24 25 26 27 | xx xx xx xx | xx xx xx xx
xx xx xx xx | xx xx xx xx | xx xx xx xx | xx xx xx xx
xx xx xx xx xx xx xx xx
04 05 06 07 04 05 06 07
14 15 16 17 xx xx xx xx
22 23 24 25 26 27 28 29
----------------------------------------
ld_4x4=1 ld_4x8=0 shift_up=1 shift_left=0 squash=0 capture=0
00 01 02 03 | 04 05 06 07 | 08 09 0a 0b | 0c 0d 0e 0f
10 11 12 13 | 14 15 16 17 | 18 19 1a 1b | 1c 1d 1e 1f
20 21 22 23 | 24 25 26 27 | xx xx xx xx | xx xx xx xx
xx xx xx xx | xx xx xx xx | xx xx xx xx | xx xx xx xx
xx xx xx xx 04 05 06 07
04 05 06 07 xx xx xx xx
14 15 16 17 08 09 0a 0b
23 24 25 26 27 28 29 2a
----------------------------------------
ld_4x4=0 ld_4x8=0 shift_up=0 shift_left=1 squash=0 capture=0
00 01 02 03 | 04 05 06 07 | 08 09 0a 0b | 0c 0d 0e 0f
10 11 12 13 | 14 15 16 17 | 18 19 1a 1b | 1c 1d 1e 1f
20 21 22 23 | 24 25 26 27 | xx xx xx xx | xx xx xx xx
xx xx xx xx | xx xx xx xx | xx xx xx xx | xx xx xx xx
xx xx xx xx xx xx xx xx
04 05 06 07 08 09 0a 0b
14 15 16 17 18 19 1a 1b
24 25 26 27 28 29 2a 2b
----------------------------------------
ld_4x4=1 ld_4x8=0 shift_up=0 shift_left=0 squash=0 capture=0
00 01 02 03 | 04 05 06 07 | 08 09 0a 0b | 0c 0d 0e 0f
10 11 12 13 | 14 15 16 17 | 18 19 1a 1b | 1c 1d 1e 1f
20 21 22 23 | 24 25 26 27 | 28 29 2a 2b | xx xx xx xx
xx xx xx xx | xx xx xx xx | xx xx xx xx | xx xx xx xx
xx xx xx xx xx xx xx xx
08 09 0a 0b 08 09 0a 0b
18 19 1a 1b 18 19 1a 1b
25 26 27 28 29 2a 2b 2c
----------------------------------------
ld_4x4=1 ld_4x8=0 shift_up=1 shift_left=0 squash=0 capture=0
00 01 02 03 | 04 05 06 07 | 08 09 0a 0b | 0c 0d 0e 0f
10 11 12 13 | 14 15 16 17 | 18 19 1a 1b | 1c 1d 1e 1f
20 21 22 23 | 24 25 26 27 | 28 29 2a 2b | xx xx xx xx
xx xx xx xx | xx xx xx xx | xx xx xx xx | xx xx xx xx
xx xx xx xx xx xx xx xx
08 09 0a 0b 08 09 0a 0b
18 19 1a 1b xx xx xx xx
26 27 28 29 2a 2b 2c 2d
----------------------------------------
ld_4x4=1 ld_4x8=0 shift_up=1 shift_left=0 squash=0 capture=0
00 01 02 03 | 04 05 06 07 | 08 09 0a 0b | 0c 0d 0e 0f
10 11 12 13 | 14 15 16 17 | 18 19 1a 1b | 1c 1d 1e 1f
20 21 22 23 | 24 25 26 27 | 28 29 2a 2b | xx xx xx xx
xx xx xx xx | xx xx xx xx | xx xx xx xx | xx xx xx xx
xx xx xx xx 08 09 0a 0b
08 09 0a 0b xx xx xx xx
18 19 1a 1b 0c 0d 0e 0f
27 28 29 2a 2b 2c 2d 2e
----------------------------------------
ld_4x4=0 ld_4x8=1 shift_up=0 shift_left=1 squash=1 capture=0
00 01 02 03 | 04 05 06 07 | 08 09 0a 0b | 0c 0d 0e 0f
10 11 12 13 | 14 15 16 17 | 18 19 1a 1b | 1c 1d 1e 1f
20 21 22 23 | 24 25 26 27 | 28 29 2a 2b | xx xx xx xx
xx xx xx xx | xx xx xx xx | xx xx xx xx | xx xx xx xx
xx xx xx xx xx xx xx xx
08 09 0a 0b 0c 0d 0e 0f
18 19 1a 1b 1c 1d 1e 1f
28 29 2a 2b 2c 2d 2e 2f
----------------------------------------
ld_4x4=1 ld_4x8=0 shift_up=0 shift_left=0 squash=0 capture=0
00 01 02 03 | 04 05 06 07 | 08 09 0a 0b | 0c 0d 0e 0f
10 11 12 13 | 14 15 16 17 | 18 19 1a 1b | 1c 1d 1e 1f
20 21 22 23 | 24 25 26 27 | 28 29 2a 2b | 2c 2d 2e 2f
xx xx xx xx | xx xx xx xx | xx xx xx xx | xx xx xx xx
xx xx xx xx xx xx xx xx
0c 0d 0e 0f 0c 0d 0e 0f
1c 1d 1e 1f 1c 1d 1e 1f
29 2a 2b 2c 2d 2e 2f 30
----------------------------------------
ld_4x4=1 ld_4x8=0 shift_up=1 shift_left=0 squash=0 capture=0
00 01 02 03 | 04 05 06 07 | 08 09 0a 0b | 0c 0d 0e 0f
10 11 12 13 | 14 15 16 17 | 18 19 1a 1b | 1c 1d 1e 1f
20 21 22 23 | 24 25 26 27 | 28 29 2a 2b | 2c 2d 2e 2f
xx xx xx xx | xx xx xx xx | xx xx xx xx | xx xx xx xx
xx xx xx xx xx xx xx xx
0c 0d 0e 0f 0c 0d 0e 0f
1c 1d 1e 1f 00 01 02 03
