Vivado_testing/Staging_to_MAC_new/Staging_Unit.sim/sim_1/behav/xsim/simulate.log
Time resolution is 1 ps
Loading kernel byte at time 55000
Loading kernel byte at time 65000
Loading kernel byte at time 75000
Loading kernel byte at time 85000
Loading kernel byte at time 95000
Loading kernel byte at time 105000
Loading kernel byte at time 115000
Loading kernel byte at time 125000
Loading kernel byte at time 135000
Loading kernel byte at time 145000
Loading kernel byte at time 155000
Loading kernel byte at time 165000
Loading kernel byte at time 175000
Loading kernel byte at time 185000
Loading kernel byte at time 195000
Loading kernel byte at time 205000
Kernel loaded:
01 01 01 01
01 01 01 01
01 01 01 01
01 01 01 01
Internal registered_kernel[0:15]: 01 01 01 01 01 01 01 01 01 01 01 01 01 01 01 01 
========================================
ld_4x4=1 ld_mac_buffer=0 shift_up=0 squash=0 capture=0
capture_out=0 squash_out=0
4x4 Staging Buffer:
04 05 06 07
14 15 16 17
24 25 26 27
35 36 37 38
4x8 MAC Buffer:
00 01 02 03 04 05 06 07
10 11 12 13 14 15 16 17
20 21 22 23 24 25 26 27
30 31 32 33 34 35 36 37
Collector Output: 00 00 00 00 00 60 c4 2c
----------------------------------------
ld_4x4=1 ld_mac_buffer=0 shift_up=1 squash=0 capture=0
capture_out=0 squash_out=0
4x4 Staging Buffer:
04 05 06 07
14 15 16 17
08 09 0a 0b
36 37 38 39
4x8 MAC Buffer:
01 02 03 04 05 06 07 00
11 12 13 14 15 16 17 00
21 22 23 24 25 26 27 00
31 32 33 34 35 36 37 00
Collector Output: 00 00 00 00 60 c4 2c 98
----------------------------------------
ld_4x4=1 ld_mac_buffer=0 shift_up=1 squash=0 capture=0
capture_out=0 squash_out=0
4x4 Staging Buffer:
14 15 16 17
08 09 0a 0b
18 19 1a 1b
37 38 39 3a
4x8 MAC Buffer:
02 03 04 05 06 07 00 00
12 13 14 15 16 17 00 00
22 23 24 25 26 27 00 00
32 33 34 35 36 37 00 00
Collector Output: 00 00 00 60 c4 2c 98 a8
----------------------------------------
ld_4x4=0 ld_mac_buffer=1 shift_up=0 squash=0 capture=0
capture_out=0 squash_out=0
4x4 Staging Buffer:
08 09 0a 0b
18 19 1a 1b
28 29 2a 2b
38 39 3a 3b
4x8 MAC Buffer:
03 04 05 06 07 00 00 00
13 14 15 16 17 00 00 00
23 24 25 26 27 00 00 00
33 34 35 36 37 00 00 00
Collector Output: 00 00 60 c4 2c 98 a8 b8
----------------------------------------
ld_4x4=1 ld_mac_buffer=0 shift_up=0 squash=0 capture=0
capture_out=0 squash_out=0
4x4 Staging Buffer:
08 09 0a 0b
18 19 1a 1b
28 29 2a 2b
39 3a 3b 3c
4x8 MAC Buffer:
04 05 06 07 08 09 0a 0b
14 15 16 17 18 19 1a 1b
24 25 26 27 28 29 2a 2b
34 35 36 37 38 39 3a 3b
Collector Output: 00 60 c4 2c 98 a8 b8 c8
----------------------------------------
ld_4x4=1 ld_mac_buffer=0 shift_up=1 squash=0 capture=0
capture_out=0 squash_out=0
4x4 Staging Buffer:
08 09 0a 0b
18 19 1a 1b
0c 0d 0e 0f
3a 3b 3c 3d
4x8 MAC Buffer:
05 06 07 08 09 0a 0b 00
15 16 17 18 19 1a 1b 00
25 26 27 28 29 2a 2b 00
35 36 37 38 39 3a 3b 00
Collector Output: 60 c4 2c 98 a8 b8 c8 d8
----------------------------------------
ld_4x4=1 ld_mac_buffer=0 shift_up=1 squash=0 capture=0
capture_out=0 squash_out=0
4x4 Staging Buffer:
18 19 1a 1b
0c 0d 0e 0f
1c 1d 1e 1f
3b 3c 3d 3e
4x8 MAC Buffer:
06 07 08 09 0a 0b 00 00
16 17 18 19 1a 1b 00 00
26 27 28 29 2a 2b 00 00
36 37 38 39 3a 3b 00 00
Collector Output: c4 2c 98 a8 b8 c8 d8 e8
----------------------------------------
ld_4x4=0 ld_mac_buffer=1 shift_up=0 squash=1 capture=1
capture_out=0 squash_out=0
4x4 Staging Buffer:
0c 0d 0e 0f
1c 1d 1e 1f
2c 2d 2e 2f
3c 3d 3e 3f
4x8 MAC Buffer:
07 08 09 0a 0b 00 00 00
17 18 19 1a 1b 00 00 00
27 28 29 2a 2b 00 00 00
37 38 39 3a 3b 00 00 00
Collector Output: 2c 98 a8 b8 c8 d8 e8 f8
----------------------------------------
ld_4x4=1 ld_mac_buffer=0 shift_up=0 squash=0 capture=0
capture_out=0 squash_out=0
4x4 Staging Buffer:
0c 0d 0e 0f
1c 1d 1e 1f
2c 2d 2e 2f
3d 3e 3f 40
4x8 MAC Buffer:
08 09 0a 0b 0c 0d 0e 0f
18 19 1a 1b 1c 1d 1e 1f
28 29 2a 2b 2c 2d 2e 2f
38 39 3a 3b 3c 3d 3e 3f
Collector Output: 98 a8 b8 c8 d8 e8 f8 08
----------------------------------------
ld_4x4=1 ld_mac_buffer=0 shift_up=1 squash=0 capture=0
capture_out=0 squash_out=0
4x4 Staging Buffer:
0c 0d 0e 0f
1c 1d 1e 1f
10 11 12 13
3e 3f 40 41
4x8 MAC Buffer:
09 0a 0b 0c 0d 0e 0f 00
19 1a 1b 1c 1d 1e 1f 00
29 2a 2b 2c 2d 2e 2f 00
39 3a 3b 3c 3d 3e 3f 00
Collector Output: a8 b8 c8 d8 e8 f8 08 18
----------------------------------------
ld_4x4=1 ld_mac_buffer=0 shift_up=1 squash=0 capture=0
capture_out=0 squash_out=0
4x4 Staging Buffer:
1c 1d 1e 1f
10 11 12 13
20 21 22 23
3f 40 41 42
4x8 MAC Buffer:
0a 0b 0c 0d 0e 0f 00 00
1a 1b 1c 1d 1e 1f 00 00
2a 2b 2c 2d 2e 2f 00 00
3a 3b 3c 3d 3e 3f 00 00
Collector Output: b8 c8 d8 e8 f8 08 18 28
----------------------------------------
ld_4x4=0 ld_mac_buffer=1 shift_up=0 squash=0 capture=0
capture_out=0 squash_out=0
4x4 Staging Buffer:
10 11 12 13
20 21 22 23
30 31 32 33
40 41 42 43
4x8 MAC Buffer:
0b 0c 0d 0e 0f 00 00 00
1b 1c 1d 1e 1f 00 00 00
2b 2c 2d 2e 2f 00 00 00
3b 3c 3d 3e 3f 00 00 00
Collector Output: c8 d8 e8 f8 08 18 28 38
----------------------------------------
ld_4x4=1 ld_mac_buffer=0 shift_up=0 squash=0 capture=0
capture_out=1 squash_out=0
4x4 Staging Buffer:
10 11 12 13
20 21 22 23
30 31 32 33
41 42 43 44
4x8 MAC Buffer:
0c 0d 0e 0f 10 11 12 13
1c 1d 1e 1f 20 21 22 23
2c 2d 2e 2f 30 31 32 33
3c 3d 3e 3f 40 41 42 43
Collector Output: d8 e8 f8 08 18 28 38 48
----------------------------------------
ld_4x4=1 ld_mac_buffer=0 shift_up=1 squash=0 capture=0
capture_out=0 squash_out=0
4x4 Staging Buffer:
10 11 12 13
20 21 22 23
14 15 16 17
42 43 44 45
4x8 MAC Buffer:
0d 0e 0f 10 11 12 13 00
1d 1e 1f 20 21 22 23 00
2d 2e 2f 30 31 32 33 00
3d 3e 3f 40 41 42 43 00
Collector Output: e8 f8 08 18 28 38 48 58
----------------------------------------
ld_4x4=1 ld_mac_buffer=0 shift_up=1 squash=0 capture=0
capture_out=0 squash_out=0
4x4 Staging Buffer:
20 21 22 23
14 15 16 17
24 25 26 27
43 44 45 46
4x8 MAC Buffer:
0e 0f 10 11 12 13 00 00
1e 1f 20 21 22 23 00 00
2e 2f 30 31 32 33 00 00
3e 3f 40 41 42 43 00 00
Collector Output: f8 08 18 28 38 48 58 68
----------------------------------------
ld_4x4=0 ld_mac_buffer=1 shift_up=0 squash=0 capture=1
capture_out=0 squash_out=0
4x4 Staging Buffer:
14 15 16 17
24 25 26 27
34 35 36 37
44 45 46 47
4x8 MAC Buffer:
0f 10 11 12 13 00 00 00
1f 20 21 22 23 00 00 00
2f 30 31 32 33 00 00 00
3f 40 41 42 43 00 00 00
Collector Output: 08 18 28 38 48 58 68 78
----------------------------------------
ld_4x4=1 ld_mac_buffer=0 shift_up=0 squash=0 capture=0
capture_out=0 squash_out=0
4x4 Staging Buffer:
14 15 16 17
24 25 26 27
34 35 36 37
45 46 47 48
4x8 MAC Buffer:
10 11 12 13 14 15 16 17
20 21 22 23 24 25 26 27
30 31 32 33 34 35 36 37
40 41 42 43 44 45 46 47
Collector Output: 18 28 38 48 58 68 78 88
----------------------------------------
ld_4x4=1 ld_mac_buffer=0 shift_up=1 squash=0 capture=0
capture_out=0 squash_out=0
4x4 Staging Buffer:
14 15 16 17
24 25 26 27
18 19 1a 1b
46 47 48 49
4x8 MAC Buffer:
11 12 13 14 15 16 17 00
21 22 23 24 25 26 27 00
31 32 33 34 35 36 37 00
41 42 43 44 45 46 47 00
Collector Output: 28 38 48 58 68 78 88 98
----------------------------------------
ld_4x4=1 ld_mac_buffer=0 shift_up=1 squash=0 capture=0
capture_out=0 squash_out=0
4x4 Staging Buffer:
24 25 26 27
18 19 1a 1b
28 29 2a 2b
47 48 49 4a
4x8 MAC Buffer:
12 13 14 15 16 17 00 00
22 23 24 25 26 27 00 00
32 33 34 35 36 37 00 00
42 43 44 45 46 47 00 00
Collector Output: 38 48 58 68 78 88 98 a8
----------------------------------------
ld_4x4=0 ld_mac_buffer=1 shift_up=0 squash=0 capture=0
capture_out=0 squash_out=1
4x4 Staging Buffer:
18 19 1a 1b
28 29 2a 2b
38 39 3a 3b
48 49 4a 4b
4x8 MAC Buffer:
13 14 15 16 17 00 00 00
23 24 25 26 27 00 00 00
33 34 35 36 37 00 00 00
43 44 45 46 47 00 00 00
Collector Output: 48 58 68 78 88 98 a8 b8
----------------------------------------
ld_4x4=1 ld_mac_buffer=0 shift_up=0 squash=0 capture=0
capture_out=1 squash_out=0
4x4 Staging Buffer:
18 19 1a 1b
28 29 2a 2b
38 39 3a 3b
49 4a 4b 4c
4x8 MAC Buffer:
14 15 16 17 18 19 1a 1b
24 25 26 27 28 29 2a 2b
34 35 36 37 38 39 3a 3b
44 45 46 47 48 49 4a 4b
Collector Output: 58 68 78 88 98 00 00 00
----------------------------------------
ld_4x4=1 ld_mac_buffer=0 shift_up=1 squash=0 capture=0
capture_out=0 squash_out=0
4x4 Staging Buffer:
18 19 1a 1b
28 29 2a 2b
1c 1d 1e 1f
4a 4b 4c 4d
4x8 MAC Buffer:
15 16 17 18 19 1a 1b 00
25 26 27 28 29 2a 2b 00
35 36 37 38 39 3a 3b 00
45 46 47 48 49 4a 4b 00
Collector Output: 68 78 88 98 00 00 00 d8
----------------------------------------
ld_4x4=1 ld_mac_buffer=0 shift_up=1 squash=0 capture=0
capture_out=0 squash_out=0
4x4 Staging Buffer:
28 29 2a 2b
1c 1d 1e 1f
2c 2d 2e 2f
4b 4c 4d 4e
4x8 MAC Buffer:
16 17 18 19 1a 1b 00 00
26 27 28 29 2a 2b 00 00
36 37 38 39 3a 3b 00 00
46 47 48 49 4a 4b 00 00
Collector Output: 78 88 98 00 00 00 d8 e8
----------------------------------------
ld_4x4=0 ld_mac_buffer=1 shift_up=0 squash=1 capture=1
capture_out=0 squash_out=0
4x4 Staging Buffer:
1c 1d 1e 1f
2c 2d 2e 2f
3c 3d 3e 3f
4c 4d 4e 4f
4x8 MAC Buffer:
17 18 19 1a 1b 00 00 00
27 28 29 2a 2b 00 00 00
37 38 39 3a 3b 00 00 00
47 48 49 4a 4b 00 00 00
Collector Output: 88 98 00 00 00 d8 e8 f8
----------------------------------------
ld_4x4=1 ld_mac_buffer=0 shift_up=0 squash=0 capture=0
capture_out=0 squash_out=0
4x4 Staging Buffer:
1c 1d 1e 1f
2c 2d 2e 2f
3c 3d 3e 3f
4d 4e 4f 50
4x8 MAC Buffer:
18 19 1a 1b 1c 1d 1e 1f
28 29 2a 2b 2c 2d 2e 2f
38 39 3a 3b 3c 3d 3e 3f
48 49 4a 4b 4c 4d 4e 4f
Collector Output: 98 00 00 00 d8 e8 f8 08
----------------------------------------
ld_4x4=1 ld_mac_buffer=0 shift_up=1 squash=0 capture=0
capture_out=0 squash_out=0
4x4 Staging Buffer:
1c 1d 1e 1f
2c 2d 2e 2f
20 21 22 23
4e 4f 50 51
4x8 MAC Buffer:
19 1a 1b 1c 1d 1e 1f 00
29 2a 2b 2c 2d 2e 2f 00
39 3a 3b 3c 3d 3e 3f 00
49 4a 4b 4c 4d 4e 4f 00
Collector Output: 00 00 00 d8 e8 f8 08 18
----------------------------------------
ld_4x4=1 ld_mac_buffer=0 shift_up=1 squash=0 capture=0
capture_out=0 squash_out=0
4x4 Staging Buffer:
2c 2d 2e 2f
20 21 22 23
30 31 32 33
4f 50 51 52
4x8 MAC Buffer:
1a 1b 1c 1d 1e 1f 00 00
2a 2b 2c 2d 2e 2f 00 00
3a 3b 3c 3d 3e 3f 00 00
4a 4b 4c 4d 4e 4f 00 00
Collector Output: 00 00 d8 e8 f8 08 18 28
----------------------------------------
ld_4x4=0 ld_mac_buffer=1 shift_up=0 squash=0 capture=0
capture_out=0 squash_out=0
4x4 Staging Buffer:
20 21 22 23
30 31 32 33
40 41 42 43
50 51 52 53
4x8 MAC Buffer:
1b 1c 1d 1e 1f 00 00 00
2b 2c 2d 2e 2f 00 00 00
3b 3c 3d 3e 3f 00 00 00
4b 4c 4d 4e 4f 00 00 00
Collector Output: 00 d8 e8 f8 08 18 28 38
----------------------------------------
ld_4x4=1 ld_mac_buffer=0 shift_up=0 squash=0 capture=0
capture_out=1 squash_out=0
4x4 Staging Buffer:
20 21 22 23
30 31 32 33
40 41 42 43
51 52 53 54
4x8 MAC Buffer:
1c 1d 1e 1f 20 21 22 23
2c 2d 2e 2f 30 31 32 33
3c 3d 3e 3f 40 41 42 43
4c 4d 4e 4f 50 51 52 53
Collector Output: d8 e8 f8 08 18 28 38 48
----------------------------------------
ld_4x4=1 ld_mac_buffer=0 shift_up=1 squash=0 capture=0
capture_out=0 squash_out=0
4x4 Staging Buffer:
20 21 22 23
30 31 32 33
24 25 26 27
52 53 54 55
4x8 MAC Buffer:
1d 1e 1f 20 21 22 23 00
2d 2e 2f 30 31 32 33 00
3d 3e 3f 40 41 42 43 00
4d 4e 4f 50 51 52 53 00
Collector Output: e8 f8 08 18 28 38 48 58
----------------------------------------
ld_4x4=1 ld_mac_buffer=0 shift_up=1 squash=0 capture=0
capture_out=0 squash_out=0
4x4 Staging Buffer:
30 31 32 33
24 25 26 27
34 35 36 37
53 54 55 56
4x8 MAC Buffer:
1e 1f 20 21 22 23 00 00
2e 2f 30 31 32 33 00 00
3e 3f 40 41 42 43 00 00
4e 4f 50 51 52 53 00 00
Collector Output: f8 08 18 28 38 48 58 68
----------------------------------------
ld_4x4=0 ld_mac_buffer=1 shift_up=0 squash=0 capture=1
capture_out=0 squash_out=0
4x4 Staging Buffer:
24 25 26 27
34 35 36 37
44 45 46 47
54 55 56 57
4x8 MAC Buffer:
1f 20 21 22 23 00 00 00
2f 30 31 32 33 00 00 00
3f 40 41 42 43 00 00 00
4f 50 51 52 53 00 00 00
Collector Output: 08 18 28 38 48 58 68 78
----------------------------------------
ld_4x4=1 ld_mac_buffer=0 shift_up=0 squash=0 capture=0
capture_out=0 squash_out=0
4x4 Staging Buffer:
24 25 26 27
34 35 36 37
44 45 46 47
55 56 57 58
4x8 MAC Buffer:
20 21 22 23 24 25 26 27
30 31 32 33 34 35 36 37
40 41 42 43 44 45 46 47
50 51 52 53 54 55 56 57
Collector Output: 18 28 38 48 58 68 78 88
----------------------------------------
ld_4x4=1 ld_mac_buffer=0 shift_up=1 squash=0 capture=0
capture_out=0 squash_out=0
4x4 Staging Buffer:
24 25 26 27
34 35 36 37
28 29 2a 2b
56 57 58 59
4x8 MAC Buffer:
21 22 23 24 25 26 27 00
31 32 33 34 35 36 37 00
41 42 43 44 45 46 47 00
51 52 53 54 55 56 57 00
Collector Output: 28 38 48 58 68 78 88 98
----------------------------------------
ld_4x4=1 ld_mac_buffer=0 shift_up=1 squash=0 capture=0
capture_out=0 squash_out=0
4x4 Staging Buffer:
34 35 36 37
28 29 2a 2b
38 39 3a 3b
57 58 59 5a
4x8 MAC Buffer:
22 23 24 25 26 27 00 00
32 33 34 35 36 37 00 00
42 43 44 45 46 47 00 00
52 53 54 55 56 57 00 00
Collector Output: 38 48 58 68 78 88 98 a8
----------------------------------------
ld_4x4=0 ld_mac_buffer=1 shift_up=0 squash=0 capture=0
capture_out=0 squash_out=1
4x4 Staging Buffer:
28 29 2a 2b
38 39 3a 3b
48 49 4a 4b
58 59 5a 5b
4x8 MAC Buffer:
23 24 25 26 27 00 00 00
33 34 35 36 37 00 00 00
43 44 45 46 47 00 00 00
53 54 55 56 57 00 00 00
Collector Output: 48 58 68 78 88 98 a8 b8
----------------------------------------
ld_4x4=1 ld_mac_buffer=0 shift_up=0 squash=0 capture=0
capture_out=1 squash_out=0
4x4 Staging Buffer:
28 29 2a 2b
38 39 3a 3b
48 49 4a 4b
59 5a 5b 5c
4x8 MAC Buffer:
24 25 26 27 28 29 2a 2b
34 35 36 37 38 39 3a 3b
44 45 46 47 48 49 4a 4b
54 55 56 57 58 59 5a 5b
Collector Output: 58 68 78 88 98 00 00 00
----------------------------------------
ld_4x4=1 ld_mac_buffer=0 shift_up=1 squash=0 capture=0
capture_out=0 squash_out=0
4x4 Staging Buffer:
28 29 2a 2b
38 39 3a 3b
2c 2d 2e 2f
5a 5b 5c 5d
4x8 MAC Buffer:
25 26 27 28 29 2a 2b 00
35 36 37 38 39 3a 3b 00
45 46 47 48 49 4a 4b 00
55 56 57 58 59 5a 5b 00
Collector Output: 68 78 88 98 00 00 00 d8
----------------------------------------
ld_4x4=1 ld_mac_buffer=0 shift_up=1 squash=0 capture=0
capture_out=0 squash_out=0
4x4 Staging Buffer:
38 39 3a 3b
2c 2d 2e 2f
3c 3d 3e 3f
5b 5c 5d 5e
4x8 MAC Buffer:
26 27 28 29 2a 2b 00 00
36 37 38 39 3a 3b 00 00
46 47 48 49 4a 4b 00 00
56 57 58 59 5a 5b 00 00
Collector Output: 78 88 98 00 00 00 d8 e8
----------------------------------------
ld_4x4=0 ld_mac_buffer=1 shift_up=0 squash=1 capture=1
capture_out=0 squash_out=0
4x4 Staging Buffer:
2c 2d 2e 2f
3c 3d 3e 3f
4c 4d 4e 4f
5c 5d 5e 5f
4x8 MAC Buffer:
27 28 29 2a 2b 00 00 00
37 38 39 3a 3b 00 00 00
47 48 49 4a 4b 00 00 00
57 58 59 5a 5b 00 00 00
Collector Output: 88 98 00 00 00 d8 e8 f8
----------------------------------------
ld_4x4=1 ld_mac_buffer=0 shift_up=0 squash=0 capture=0
capture_out=0 squash_out=0
4x4 Staging Buffer:
2c 2d 2e 2f
3c 3d 3e 3f
4c 4d 4e 4f
5d 5e 5f 60
4x8 MAC Buffer:
28 29 2a 2b 2c 2d 2e 2f
38 39 3a 3b 3c 3d 3e 3f
48 49 4a 4b 4c 4d 4e 4f
58 59 5a 5b 5c 5d 5e 5f
Collector Output: 98 00 00 00 d8 e8 f8 08
----------------------------------------
ld_4x4=1 ld_mac_buffer=0 shift_up=1 squash=0 capture=0
capture_out=0 squash_out=0
4x4 Staging Buffer:
2c 2d 2e 2f
3c 3d 3e 3f
30 31 32 33
5e 5f 60 61
4x8 MAC Buffer:
29 2a 2b 2c 2d 2e 2f 00
39 3a 3b 3c 3d 3e 3f 00
49 4a 4b 4c 4d 4e 4f 00
59 5a 5b 5c 5d 5e 5f 00
Collector Output: 00 00 00 d8 e8 f8 08 18
----------------------------------------
ld_4x4=1 ld_mac_buffer=0 shift_up=1 squash=0 capture=0
capture_out=0 squash_out=0
4x4 Staging Buffer:
3c 3d 3e 3f
30 31 32 33
40 41 42 43
5f 60 61 62
4x8 MAC Buffer:
2a 2b 2c 2d 2e 2f 00 00
3a 3b 3c 3d 3e 3f 00 00
4a 4b 4c 4d 4e 4f 00 00
5a 5b 5c 5d 5e 5f 00 00
Collector Output: 00 00 d8 e8 f8 08 18 28
----------------------------------------
ld_4x4=0 ld_mac_buffer=1 shift_up=0 squash=0 capture=0
capture_out=0 squash_out=0
4x4 Staging Buffer:
30 31 32 33
40 41 42 43
50 51 52 53
60 61 62 63
4x8 MAC Buffer:
2b 2c 2d 2e 2f 00 00 00
3b 3c 3d 3e 3f 00 00 00
4b 4c 4d 4e 4f 00 00 00
5b 5c 5d 5e 5f 00 00 00
Collector Output: 00 d8 e8 f8 08 18 28 38
----------------------------------------
ld_4x4=1 ld_mac_buffer=0 shift_up=0 squash=0 capture=0
capture_out=1 squash_out=0
4x4 Staging Buffer:
30 31 32 33
40 41 42 43
50 51 52 53
61 62 63 64
4x8 MAC Buffer:
2c 2d 2e 2f 30 31 32 33
3c 3d 3e 3f 40 41 42 43
4c 4d 4e 4f 50 51 52 53
5c 5d 5e 5f 60 61 62 63
Collector Output: d8 e8 f8 08 18 28 38 48
----------------------------------------
ld_4x4=1 ld_mac_buffer=0 shift_up=1 squash=0 capture=0
capture_out=0 squash_out=0
4x4 Staging Buffer:
30 31 32 33
40 41 42 43
34 35 36 37
62 63 64 65
4x8 MAC Buffer:
2d 2e 2f 30 31 32 33 00
3d 3e 3f 40 41 42 43 00
4d 4e 4f 50 51 52 53 00
5d 5e 5f 60 61 62 63 00
Collector Output: e8 f8 08 18 28 38 48 58
----------------------------------------
ld_4x4=1 ld_mac_buffer=0 shift_up=1 squash=0 capture=0
capture_out=0 squash_out=0
4x4 Staging Buffer:
40 41 42 43
34 35 36 37
44 45 46 47
63 64 65 66
4x8 MAC Buffer:
2e 2f 30 31 32 33 00 00
3e 3f 40 41 42 43 00 00
4e 4f 50 51 52 53 00 00
5e 5f 60 61 62 63 00 00
Collector Output: f8 08 18 28 38 48 58 68
----------------------------------------
ld_4x4=0 ld_mac_buffer=1 shift_up=0 squash=0 capture=1
capture_out=0 squash_out=0
4x4 Staging Buffer:
34 35 36 37
44 45 46 47
54 55 56 57
64 65 66 67
4x8 MAC Buffer:
2f 30 31 32 33 00 00 00
3f 40 41 42 43 00 00 00
4f 50 51 52 53 00 00 00
5f 60 61 62 63 00 00 00
Collector Output: 08 18 28 38 48 58 68 78
----------------------------------------
ld_4x4=1 ld_mac_buffer=0 shift_up=0 squash=0 capture=0
capture_out=0 squash_out=0
4x4 Staging Buffer:
34 35 36 37
44 45 46 47
54 55 56 57
65 66 67 68
4x8 MAC Buffer:
30 31 32 33 34 35 36 37
40 41 42 43 44 45 46 47
50 51 52 53 54 55 56 57
60 61 62 63 64 65 66 67
Collector Output: 18 28 38 48 58 68 78 88
----------------------------------------
ld_4x4=1 ld_mac_buffer=0 shift_up=1 squash=0 capture=0
capture_out=0 squash_out=0
4x4 Staging Buffer:
34 35 36 37
44 45 46 47
38 39 3a 3b
66 67 68 69
4x8 MAC Buffer:
31 32 33 34 35 36 37 00
41 42 43 44 45 46 47 00
51 52 53 54 55 56 57 00
61 62 63 64 65 66 67 00
Collector Output: 28 38 48 58 68 78 88 98
----------------------------------------
ld_4x4=1 ld_mac_buffer=0 shift_up=1 squash=0 capture=0
capture_out=0 squash_out=0
4x4 Staging Buffer:
44 45 46 47
38 39 3a 3b
48 49 4a 4b
67 68 69 6a
4x8 MAC Buffer:
32 33 34 35 36 37 00 00
42 43 44 45 46 47 00 00
52 53 54 55 56 57 00 00
62 63 64 65 66 67 00 00
Collector Output: 38 48 58 68 78 88 98 a8
----------------------------------------
ld_4x4=0 ld_mac_buffer=1 shift_up=0 squash=0 capture=0
capture_out=0 squash_out=1
4x4 Staging Buffer:
38 39 3a 3b
48 49 4a 4b
58 59 5a 5b
68 69 6a 6b
4x8 MAC Buffer:
33 34 35 36 37 00 00 00
43 44 45 46 47 00 00 00
53 54 55 56 57 00 00 00
63 64 65 66 67 00 00 00
Collector Output: 48 58 68 78 88 98 a8 b8
----------------------------------------
ld_4x4=1 ld_mac_buffer=0 shift_up=0 squash=0 capture=0
capture_out=1 squash_out=0
4x4 Staging Buffer:
38 39 3a 3b
48 49 4a 4b
58 59 5a 5b
69 6a 6b 6c
4x8 MAC Buffer:
34 35 36 37 38 39 3a 3b
44 45 46 47 48 49 4a 4b
54 55 56 57 58 59 5a 5b
64 65 66 67 68 69 6a 6b
Collector Output: 58 68 78 88 98 00 00 00
----------------------------------------
ld_4x4=1 ld_mac_buffer=0 shift_up=1 squash=0 capture=0
capture_out=0 squash_out=0
4x4 Staging Buffer:
38 39 3a 3b
48 49 4a 4b
3c 3d 3e 3f
6a 6b 6c 6d
4x8 MAC Buffer:
35 36 37 38 39 3a 3b 00
45 46 47 48 49 4a 4b 00
55 56 57 58 59 5a 5b 00
65 66 67 68 69 6a 6b 00
Collector Output: 68 78 88 98 00 00 00 d8
----------------------------------------
ld_4x4=1 ld_mac_buffer=0 shift_up=1 squash=0 capture=0
capture_out=0 squash_out=0
4x4 Staging Buffer:
48 49 4a 4b
3c 3d 3e 3f
4c 4d 4e 4f
6b 6c 6d 6e
4x8 MAC Buffer:
36 37 38 39 3a 3b 00 00
46 47 48 49 4a 4b 00 00
56 57 58 59 5a 5b 00 00
66 67 68 69 6a 6b 00 00
Collector Output: 78 88 98 00 00 00 d8 e8
----------------------------------------
ld_4x4=0 ld_mac_buffer=1 shift_up=0 squash=1 capture=1
capture_out=0 squash_out=0
4x4 Staging Buffer:
3c 3d 3e 3f
4c 4d 4e 4f
5c 5d 5e 5f
6c 6d 6e 6f
4x8 MAC Buffer:
37 38 39 3a 3b 00 00 00
47 48 49 4a 4b 00 00 00
57 58 59 5a 5b 00 00 00
67 68 69 6a 6b 00 00 00
Collector Output: 88 98 00 00 00 d8 e8 f8
----------------------------------------
ld_4x4=1 ld_mac_buffer=0 shift_up=0 squash=0 capture=0
capture_out=0 squash_out=0
4x4 Staging Buffer:
3c 3d 3e 3f
4c 4d 4e 4f
5c 5d 5e 5f
6d 6e 6f 70
4x8 MAC Buffer:
38 39 3a 3b 3c 3d 3e 3f
48 49 4a 4b 4c 4d 4e 4f
58 59 5a 5b 5c 5d 5e 5f
68 69 6a 6b 6c 6d 6e 6f
Collector Output: 98 00 00 00 d8 e8 f8 08
----------------------------------------
ld_4x4=1 ld_mac_buffer=0 shift_up=1 squash=0 capt